INDEX VERSION 1.130+/home/akhiladepu/Desktop/TS/FSD/fsd60/4.SpringBoot/StudentWorkspace/.metadata/.plugins/org.eclipse.jdt.core
1150903532.index
3800136496.index
2607914929.index
821608291.index
4142617092.index
1892876012.index
4011676121.index
1866194910.index
1089239932.index
3111774028.index
659397531.index
2132103967.index
760748543.index
3596682826.index
4286267281.index
3136779037.index
4175480430.index
1627900557.index
2454838500.index
3887836602.index
800829634.index
2255931907.index
2168512821.index
1287493877.index
1433762570.index
2359322674.index
3113773641.index
1922394171.index
3993721156.index
2177748010.index
1475817026.index
3916695468.index
1724305280.index
3677763198.index
1013125042.index
2202676794.index
2380258501.index
779766928.index
1284483677.index
1700721617.index
2330790534.index
3464641563.index
3485262699.index
1766906636.index
124181995.index
2323273179.index
3478703862.index
1059960574.index
3066711521.index
4000964494.index
4150392497.index
1175605205.index
2417264051.index
2922368126.index
502732891.index
1146776682.index
2692145047.index
152432106.index
3985748637.index
3778504541.index
3586914056.index
246264339.index
1953255642.index
3351755308.index
1653065821.index
2873961600.index
3512161136.index
5990989.index
2600952041.index
2637146493.index
625509045.index
3740368874.index
813341167.index
755934543.index
3883508318.index
2464032549.index
1533946527.index
3647518240.index
3176223848.index
823838650.index
861164845.index
1555905249.index
925982370.index
3047331928.index
1407476166.index
3530540584.index
164134301.index
3551269436.index
1628687906.index
3932675327.index
911657970.index
22026180.index
739882282.index
1588154001.index
2253745042.index
3539432263.index
909929810.index
2649371730.index
2744878784.index
2157574452.index
1038409435.index
1671258938.index
3533259870.index
